[
{
  "directory": "/home/tsoj/Dokumente/Projects/Redbush",
  "command": "/usr/bin/clang++  -DGLFW_DLL  -O3 -Wall -Wextra -Wpedantic   -std=c++17 -o CMakeFiles/Redbush.dir/src/main.cpp.o -c /home/tsoj/Dokumente/Projects/Redbush/src/main.cpp",
  "file": "/home/tsoj/Dokumente/Projects/Redbush/src/main.cpp"
},
{
  "directory": "/home/tsoj/Dokumente/Projects/Redbush",
  "command": "/usr/bin/clang++  -DGLFW_DLL  -O3 -Wall -Wextra -Wpedantic   -std=c++17 -o CMakeFiles/Redbush.dir/src/lodepng/lodepng.cpp.o -c /home/tsoj/Dokumente/Projects/Redbush/src/lodepng/lodepng.cpp",
  "file": "/home/tsoj/Dokumente/Projects/Redbush/src/lodepng/lodepng.cpp"
}
]